#1
# Rdc (Ohm) = 0.00028286375360962225
# Ldc (H) = 6.149887707330995e-6
# omega, kR, kX
double deepbar(101,3)
0.0 1.0 1.0
6.283185307179586 1.0036588404582616 0.9989641612910145
12.566370614359172 1.0145668672283843 0.9958772127276531
18.84955592153876 1.0325220101734807 0.9907998289536741
25.132741228718345 1.0571985496020198 0.9838298024486402
31.41592653589793 1.0881626554425279 0.9750973639038713
37.69911184307752 1.1248921849327507 0.9647592202600481
43.982297150257104 1.166799113099953 0.9529918000864412
50.26548245743669 1.2132529041544855 0.9399842159061211
56.548667764616276 1.2636032551099194 0.9259314159628832
62.83185307179586 1.3172009120086634 0.9110279168778226
69.11503837897544 1.3734156154435946 0.895462401316223
75.39822368615503 1.431650615345037 0.8794133493356512
81.68140899333463 1.491353554156548 0.8630457639028385
87.96459430051421 1.5520238169812621 0.846508960865361
94.24777960769379 1.6132166686364282 0.8299353269876438
100.53096491487338 1.6745446375717887 0.8134399074848672
106.81415022205297 1.7356766731532183 0.797120664443118
113.09733552923255 1.7963356102244423 0.7810592452811388
119.38052083641213 1.8562944398349837 0.7653221109584987
125.66370614359172 1.9153718235949233 0.7499618921375615
131.94689145077132 1.9734272148357874 0.7350188638809257
138.23007675795088 2.030355872909971 0.720522452613574
144.51326206513048 2.086083984550614 0.7064927108899617
150.79644737231007 2.1405640423817864 0.6929417147339603
157.07963267948966 2.1937705773182743 0.6798748543899833
163.36281798666926 2.2456962990405147 0.667292002141941
169.64600329384882 2.296348666277104 0.6551885506331054
175.92918860102841 2.345746885018186 0.6435563222320179
182.212373908208 2.393919316539121 0.6323843548837961
188.49555921538757 2.440901266744151 0.6216595730106284
194.77874452256717 2.48673312247858 0.6113673537920574
201.06192982974676 2.531458797924263 0.6014919999201918
207.34511513692635 2.5751244540129843 0.5920171299804065
213.62830044410595 2.6177774551949677 0.5829259971872268
219.9114857512855 2.6594655302913117 0.5742017464858045
226.1946710584651 2.7002361071026977 0.5658276191444539
232.4778563656447 2.740135793624798 0.5577871130074844
238.76104167282426 2.7792099819194185 0.5500641056157358
245.04422698000386 2.817502553764497 0.5426429464773922
251.32741228718345 2.8550556700710015 0.5355085239100703
257.610597594363 2.8919096286625474 0.5286463110909033
263.89378290154264 2.928102777345572 0.5220423952500315
270.1769682087222 2.96367147125458 0.515683493324625
276.46015351590177 2.9986500652493846 0.5095569568516229
282.7433388230814 3.033070933689282 0.5036507684121316
289.02652413026095 3.0669645112350477 0.49795353154196087
295.3097094374406 3.100359349457347 0.4924544556838569
301.59289474462014 3.1332821849840493 0.4871433374705459
307.8760800517997 3.16575801572071 0.48201053938677374
314.1592653589793 3.1978101823498064 0.47704696665703833
320.4424506661589 3.2294604528732664 0.4722440430378096
326.7256359733385 3.2607291084265366 0.4675936860538845
333.0088212805181 3.291635028975395 0.4630882821035621
339.29200658769764 3.3221957778215225 0.4587206617628163
345.57519189487726 3.352427684100713 0.45448407554129383
351.85837720205683 3.382345922667633 0.45037217027986637
358.1415625092364 3.4119645909313263 0.4463789663283578
364.424747816416 3.4412967823429907 0.4424988356007967
370.7079331235956 3.4703546563475682 0.43872648057248514
376.99111843077515 3.4991495046979177 0.43505691425683335
383.27430373795477 3.5276918140995455 0.43148544117917187
389.55748904513433 3.555991325207104 0.4280076393484595
395.84067435231395 3.584057088035498 0.42461934321535616
402.1238596594935 3.611897513879128 0.42131662759556254
408.4070449666731 3.6395204238560726 0.4180957925303244
414.6902302738527 3.6669330942099636 0.4149533490508952
420.97341558103227 3.694142298513251 0.41188600581024365
427.2566008882119 3.721154346922465 0.40889065654310214
433.53978619539146 3.7479751226390867 0.40596436831416716
439.822971502571 3.7746101157304706 0.40310437051386394
446.10615680975064 3.8010644544637677 0.40030804456119995
452.3893421169302 3.8273429343029184 0.3975729142739188
458.6725274241098 3.853450044714645 0.394896636867098
464.9557127312894 3.8793899939241148 0.3922769945425919
471.23889803846896 3.9051667317558003 0.38971188663315
477.5220833456485 3.9307839706884833 0.3871993222665661
483.80526865282815 3.9562452052476456 0.3847374135168527
490.0884539600077 3.9815537298515817 0.3823243690110617
496.37163926718733 4.006712655221648 0.37995848796207204
502.6548245743669 4.031724923460526 0.3776381545992861
508.93800988154646 4.056593321896119 0.3753618329707949
515.221195188726 4.081320495782995 0.3731280620921651
521.5043804959057 4.10590895994716 0.3709354514184907
527.7875658030853 4.130361109454691 0.3687826766178302
534.0707511102648 4.154679229379068 0.36666847562551963
540.3539364174444 4.178865503737428 0.36459164496020496
546.637121724624 4.202922023660837 0.36255103628366797
552.9203070318035 4.2268507948591125 0.36054555318771114
559.2034923389832 4.250653744436756 0.35857414819250516
565.4866776461628 4.274332727112138 0.356635819941834
571.7698629533423 4.29788953088856 0.35472961058167846
578.0530482605219 4.321325882222023 0.35285460330949736
584.3362335677015 4.344643450727468 0.3510099200824465
590.6194188748811 4.367843853461875 0.34919471947358854
596.9026041820607 4.390928658819809 0.3474081946658884
603.1857894892403 4.413899390074353 0.3456495715745355
609.4689747964198 4.436757528593643 0.34391810708876036
615.7521601035994 4.45950451676108 0.34221308742495515
622.0353454107791 4.482141760624899 0.3405338265834729
628.3185307179587 4.50467063230089 0.33887966490201715
